Домашнее задание №3

Пусть есть последовательность чисел 

a0, a1, a2, ..., aN

N -> infinity, aN -> -1

Вывести количество локальных минимумов

ai - локальный минимум, если ai-1 > ai < ai+1

Решение

считать -> a
считать -> b
считать -> c
min = 0

ПОКА с != -1
  ЕСЛИ a > b
    ЕСЛИ b < c
      ТО min = min + 1
  a = b
  b = c
  считать -> c
  
вывести -> min
